[
 {
  "directory": "/nfs/homes/mrudloff/42cursus/projet_perso/tournament",
  "arguments": [
   "clang",
   "-g",
   "-Wall",
   "-Wextra",
   "-Werror",
   "-Iinc",
   "-Ilibs/printf/include",
   "-c",
   "src/main.c",
   "-o",
   ".objs/src/main.o"
  ],
  "file": "src/main.c"
 },
 {
  "directory": "/nfs/homes/mrudloff/42cursus/projet_perso/tournament",
  "arguments": [
   "clang",
   "-g",
   "-Wall",
   "-Wextra",
   "-Werror",
   "-Iinc",
   "-Ilibs/printf/include",
   "-c",
   "src/openfile.c",
   "-o",
   ".objs/src/openfile.o"
  ],
  "file": "src/openfile.c"
 },
 {
  "directory": "/nfs/homes/mrudloff/42cursus/projet_perso/tournament",
  "arguments": [
   "clang",
   "-g",
   "-Wall",
   "-Wextra",
   "-Werror",
   "-Iinc",
   "-Ilibs/printf/include",
   "-c",
   "src/readfile.c",
   "-o",
   ".objs/src/readfile.o"
  ],
  "file": "src/readfile.c"
 }
]
